5 Reproducible | Portfolio
…
#Eerst compConcentration veranderen naar numeric.
graph$compConcentration <- as.numeric(graph$compConcentration)

## Warning: NAs introduced by coercion

#Een waarde wordt geteld als NA, dit kwam omdat een waarde met , was opgegeven.
#Dit veranderen we met deze command gelijk voor de hele column
graph$compConcentration <- gsub(",", ".", graph$compConcentration)

#Nu kan de column verandert worden tot numeric
graph$compConcentration <- as.numeric(graph$compConcentration)

graph

## # A tibble: 360 × 4
##    compName                   compConcentration RawData expType   
##    <chr>                                  <dbl>   <dbl> <chr>     
##  1 2,6-diisopropylnaphthalene              4.99      44 experiment
##  2 2,6-diisopropylnaphthalene              4.99      37 experiment
##  3 2,6-diisopropylnaphthalene              4.99      45 experiment
##  4 2,6-diisopropylnaphthalene              4.99      47 experiment
##  5 2,6-diisopropylnaphthalene              4.99      41 experiment
##  6 2,6-diisopropylnaphthalene              4.99      35 experiment
##  7 2,6-diisopropylnaphthalene              4.99      41 experiment
##  8 2,6-diisopropylnaphthalene              4.99      36 experiment
##  9 2,6-diisopropylnaphthalene              4.99      40 experiment
## 10 2,6-diisopropylnaphthalene              4.99      38 experiment
## # ℹ 350 more rows
…
