3 Vrije ruimte | Portfolio
…
Om de functies beter te begrijpen zoek ik de ?help van functies op.

De dataset die gebruikt wordt bestaat uit meerdere tibbles, eerst een lijst met genen. Daarna hoe de dataset er per gen uitziet. Als laatste een dataset met de metadata (informatie over waar de data vandaan komt).

immdata$data$`A2-i129`

## # A tibble: 6,532 × 15
##    Clones Proportion CDR3.nt    CDR3.aa V.name D.name J.name V.end D.start D.end
##     <dbl>      <dbl> <chr>      <chr>   <chr>  <chr>  <chr>  <int>   <int> <int>
##  1    173    0.0204  TGCGCCAGC… CASSQE… TRBV4… TRBD1  TRBJ2…    16      18    26
##  2    163    0.0192  TGCGCCAGC… CASSYR… TRBV4… TRBD1  TRBJ2…    11      13    18
##  3     66    0.00776 TGTGCCACC… CATSTN… TRBV15 TRBD1  TRBJ2…    11      16    22
##  4     54    0.00635 TGTGCCACC… CATSIG… TRBV15 TRBD2  TRBJ2…    11      19    25
##  5     48    0.00565 TGTGCCAGC… CASSPW… TRBV27 TRBD1  TRBJ1…    11      16    23
##  6     48    0.00565 TGCGCCAGC… CASQGD… TRBV4… TRBD1  TRBJ1…     8      13    19
##  7     40    0.00471 TGCGCCAGC… CASSQD… TRBV4… TRBD1  TRBJ2…    16      21    26
##  8     31    0.00365 TGTGCCAGC… CASSEE… TRBV2  TRBD1  TRBJ1…    15      17    20
##  9     30    0.00353 TGCGCCAGC… CASSQP… TRBV4… TRBD1  TRBJ2…    14      23    28
## 10     28    0.00329 TGTGCCAGC… CASSWV… TRBV6… TRBD1  TRBJ2…    12      20    25
## # ℹ 6,522 more rows
## # ℹ 5 more variables: J.start <int>, VJ.ins <dbl>, VD.ins <dbl>, DJ.ins <dbl>,
## #   Sequence <lgl>
…
De vis() functie kan gebruik maken van scale_fill_brewer om de kleuren aan te passen.

Immunarch kan ook clonotypes identificeren met online databases. De tutorial van immunarch wordt hieronder gevolgd om dit proces te demonstreren. De functies die we in dit gedeelte tegenkomen zullen ook verder onderzocht worden.

Na het downloaden van de SearchTable wordt dbLoad() gebruikt. dbLoad() kan VDJDB, McPAS-TCR en TBAdb databases laden. er zijn een paar opties die in de functie zijn verwerkt zodat de functie weet wat voor data er wordt geladen. De eerste input is de path naar de database, hier wordt de VDJDB database gebruikt die al is gefiltert op ‘species’ HomoSapiens. ‘.species’ is hier HomoSapiens. ‘.chain’ specificeert wat voor chains in de database moeten zitten. We kijken naar TRB chains dus dat wordt ingevoerd. Omdat er in de tutorial gekeken wordt naar het Cytomegalovirus wordt dit aangegeven met .pathology = “CMV”.

vdjdb_st = dbLoad("vrije_ruimte/VDJDB_database/SearchTable-2025-05-25 22_39_15.094.tsv", "vdjdb-search", .species = "HomoSapiens", .chain = "TRB", .pathology = "CMV")
vdjdb_st

## # A tibble: 20,572 × 19
##    complex.id Gene  CDR3         V     J     Species `MHC A` `MHC B` `MHC class`
##         <dbl> <chr> <chr>        <chr> <chr> <chr>   <chr>   <chr>   <chr>      
##  1          0 TRB   CASSLGVDFNY… TRBV… TRBJ… HomoSa… HLA-A*… B2M     MHCI       
##  2          0 TRB   CSVTGTSYEQYF TRBV… TRBJ… HomoSa… HLA-A*… B2M     MHCI       
##  3          0 TRB   CATSSPGLASD… TRBV… TRBJ… HomoSa… HLA-A*… B2M     MHCI       
##  4          0 TRB   CASSSPLLSSD… TRBV… TRBJ… HomoSa… HLA-A*… B2M     MHCI       
##  5          0 TRB   CASSLSGGLWS… TRBV… TRBJ… HomoSa… HLA-A*… B2M     MHCI       
##  6          0 TRB   CSVVGRYYEQYF TRBV… TRBJ… HomoSa… HLA-A*… B2M     MHCI       
##  7          0 TRB   CATSGPSASYE… TRBV… TRBJ… HomoSa… HLA-A*… B2M     MHCI       
##  8          0 TRB   CASSFNGPNTE… TRBV… TRBJ… HomoSa… HLA-B*… B2M     MHCI       
##  9          0 TRB   CAISEFGLAGS… TRBV… TRBJ… HomoSa… HLA-B*… B2M     MHCI       
## 10          0 TRB   CASSLFDGTGS… TRBV… TRBJ… HomoSa… HLA-B*… B2M     MHCI       
## # ℹ 20,562 more rows
## # ℹ 10 more variables: Epitope <chr>, `Epitope gene` <chr>,
## #   `Epitope species` <chr>, Reference <chr>, Method <chr>, Meta <chr>,
## #   CDR3fix <chr>, Score <dbl>, Chain <chr>, Pathology <chr>
…
vdjdb <- vdjdb_st %>% filter(vdjdb_st$Epitope == "NLVPMVATV")
vdjdb

## # A tibble: 5,067 × 19
##    complex.id Gene  CDR3         V     J     Species `MHC A` `MHC B` `MHC class`
##         <dbl> <chr> <chr>        <chr> <chr> <chr>   <chr>   <chr>   <chr>      
##  1          0 TRB   CASSYSTGTPG… TRBV… TRBJ… HomoSa… HLA-A*… B2M     MHCI       
##  2          0 TRB   CASTPAGGAPG… TRBV… TRBJ… HomoSa… HLA-A*… B2M     MHCI       
##  3          0 TRB   CASSLAPGATN… TRBV… TRBJ… HomoSa… HLA-A*… B2M     MHCI       
##  4          0 TRB   CASSFSGGAPG… TRBV… TRBJ… HomoSa… HLA-A*… B2M     MHCI       
##  5          0 TRB   CASSYFGGNTE… TRBV… TRBJ… HomoSa… HLA-A*… B2M     MHCI       
##  6          0 TRB   CASSLAPGATS… TRBV… TRBJ… HomoSa… HLA-A*… B2M     MHCI       
##  7          0 TRB   CASSYQTGTIY… TRBV… TRBJ… HomoSa… HLA-A*… B2M     MHCI       
##  8          0 TRB   CASSPQTGAIY… TRBV… TRBJ… HomoSa… HLA-A*… B2M     MHCI       
##  9          0 TRB   CASSALGGGGT… TRBV… TRBJ… HomoSa… HLA-A*… B2M     MHCI       
## 10          0 TRB   CASSPVQGAFY… TRBV… TRBJ… HomoSa… HLA-A*… B2M     MHCI       
## # ℹ 5,057 more rows
## # ℹ 10 more variables: Epitope <chr>, `Epitope gene` <chr>,
## #   `Epitope species` <chr>, Reference <chr>, Method <chr>, Meta <chr>,
## #   CDR3fix <chr>, Score <dbl>, Chain <chr>, Pathology <chr>

De getKmers functie kan Kmers detecteren. Deze berekent hoeveel kmers er aanwezig zijn in een repertoire. Alleen de ‘.k’ optie is nieuw vergeleken met de andere functies. ‘.k’ is een integer die aangeeft hoe lang de kmers moeten zijn. De optie .coding staat standaard op TRUE, deze optie vertelt de functie of niet coderende sequenties moeten worden meegeteld. De standaard filtert alle niet coderende sequenties eruit.

kmers <- getKmers(immdata$data[[1]], 3)
kmers

## # A tibble: 4,405 × 2
##    Kmer  Count
##    <chr> <int>
##  1 AAA       6
##  2 AAD       5
##  3 AAE       9
##  4 AAF       2
##  5 AAG      37
##  6 AAI       2
##  7 AAK       5
##  8 AAL       4
##  9 AAM       1
## 10 AAN      13
## # ℹ 4,395 more rows
…
